<svg xmlns="http://www.w3.org/2000/svg" width="96" height="95" viewBox="0 0 96 95">
  <g id="Elipse_1" data-name="Elipse 1" fill="none" stroke="#94ca3b" stroke-width="2">
    <ellipse cx="48" cy="47.5" rx="48" ry="47.5" stroke="none"/>
    <ellipse cx="48" cy="47.5" rx="47" ry="46.5" fill="none"/>
  </g>
  <text id="_1" data-name="1" transform="translate(34 67)" fill="none" stroke="#94ca3b" stroke-width="1" font-size="53" font-family="Helvetica-Bold, Helvetica" font-weight="700"><tspan x="0" y="0">1</tspan></text>
</svg>
